…
For snowfall, what are the most commonly observed values?

``` r
ny_noaa_tidy %>% 
  count(
    snow) %>% 
  arrange(desc(n)) 
```

    ## # A tibble: 282 × 2
    ##     snow       n
    ##    <dbl>   <int>
    ##  1     0 2008508
    ##  2    NA  381221
    ##  3   250   31022
    ##  4   130   23095
    ##  5   510   18274
    ##  6   760   10173
    ##  7    80    9962
    ##  8    50    9748
    ##  9   380    9197
    ## 10    30    8790
    ## # … with 272 more rows

``` r
ny_noaa_tidy %>% 
  group_by(snow) %>% 
  summarize(
     n_obs = n()) %>% 
  arrange(desc(n_obs))
```

    ## # A tibble: 282 × 2
    ##     snow   n_obs
    ##    <dbl>   <int>
    ##  1     0 2008508
    ##  2    NA  381221
    ##  3   250   31022
    ##  4   130   23095
    ##  5   510   18274
    ##  6   760   10173
    ##  7    80    9962
    ##  8    50    9748
    ##  9   380    9197
    ## 10    30    8790
    ## # … with 272 more rows
…
